[06/26/2019 11:48:58 pm] Username: , Station ID: , Result: 0, IP: , Architecture: , GUID: 
[06/26/2019 11:49:21 pm] Username: dark, Station ID: , Result: 0, IP: , Architecture: , GUID: 
[06/26/2019 11:49:33 pm] Username: dark, Station ID: , Result: 1, IP: , Architecture: , GUID: 
